{
  "products": [
    {
      "product_image": "testing",
      "product_name": "testing",
      "price": 3,
      "rating": 5,
      "id": 1
    },
    {
      "product_image": "testing1",
      "product_name": "testing1",
      "price": 3,
      "rating": 5,
      "id": 2
    },
    {
      "product_image": "testing2",
      "product_name": "testing2",
      "price": 3,
      "rating": 5,
      "id": 3
    },
    {
      "name": "sdf",
      "category": "asdf",
      "id": 4
    },
    {
      "name": "sdf",
      "category": "asdf",
      "id": 5
    },
    {
      "name": "sdf",
      "category": "asdf",
      "id": 6
    },
    {
      "name": "sdf",
      "category": "asdf",
      "id": 7
    }
  ]
}